{
    "development": {
        "username": "postgres",
        "password": "postgres",
        "database": "postgres",
        "host": "nflstadiums.cx6ktwqkieho.us-east-1.rds.amazonaws.com",
        "dialect": "postgres"
    },
    "test": {
        "username": "postgres",
        "password": "postgres",
        "database": "postgres",
        "host": "nflstadiums.cx6ktwqkieho.us-east-1.rds.amazonaws.com",
        "dialect": "postgres"
      },
    "production": {
        "username": "postgres",
        "password": "postgres",
        "database": "postgres",
        "host": "nflstadiums.cx6ktwqkieho.us-east-1.rds.amazonaws.com",
        "dialect": "postgres"
    }
}
